{
    "compile":{
        "options":{
            "baseUrl": "build/convert/",
            "mainConfigFile": "src/client/js/requirejs.config.js",
            "stubModules": ["text"],
            "optimize": "none",
            "name": "bootstrap",
            "out": "build/js/lyst.js"
        }
    }
}
